…
dn_lq_nc <- full_join(dn_nc, lq_nc, by = "state")
```

    ## Warning in full_join(dn_nc, lq_nc, by = "state"): Each row in `x` is expected to match at most 1 row in `y`.
    ## ℹ Row 1 of `x` matches multiple rows.
    ## ℹ If multiple matches are expected, set `multiple = "all"` to silence this
    ##   warning.

``` r
dn_lq_nc
```

    ## # A tibble: 336 × 11
    ##    address.x     city.x state zip.x longi…¹ latit…² addre…³ city.y zip.y longi…⁴
    ##    <chr>         <chr>  <chr> <chr>   <dbl>   <dbl> <chr>   <chr>  <chr>   <dbl>
    ##  1 1 Regent Par… Ashev… NC    28806   -82.6    35.6 165 Hw… "\nBo… 28607   -81.7
    ##  2 1 Regent Par… Ashev… NC    28806   -82.6    35.6 3127 S… "\nCh… 28208   -80.9
    ##  3 1 Regent Par… Ashev… NC    28806   -82.6    35.6 4900 S… "\nCh… 28217   -80.9
    ##  4 1 Regent Par… Ashev… NC    28806   -82.6    35.6 4414 D… "\nDu… 27707   -79.0
    ##  5 1 Regent Par… Ashev… NC    28806   -82.6    35.6 1910 W… "\nDu… 27713   -78.9
    ##  6 1 Regent Par… Ashev… NC    28806   -82.6    35.6 1201 L… "\nGr… 27407   -79.9
    ##  7 1 Regent Par… Ashev… NC    28806   -82.6    35.6 1607 F… "\nCo… 28613   -81.3
    ##  8 1 Regent Par… Ashev… NC    28806   -82.6    35.6 191 Cr… "\nCa… 27518   -78.8
    ##  9 1 Regent Par… Ashev… NC    28806   -82.6    35.6 2211 S… "\nRa… 27612   -78.7
    ## 10 1 Regent Par… Ashev… NC    28806   -82.6    35.6 1001 A… "\nMo… 27560   -78.8
    ## # … with 326 more rows, 1 more variable: latitude.y <dbl>, and abbreviated
    ## #   variable names ¹​longitude.x, ²​latitude.x, ³​address.y, ⁴​longitude.y
…
dn_lq_tx <- full_join(dn_tx, lq_tx, by = "state")
```

    ## Warning in full_join(dn_tx, lq_tx, by = "state"): Each row in `x` is expected to match at most 1 row in `y`.
    ## ℹ Row 1 of `x` matches multiple rows.
    ## ℹ If multiple matches are expected, set `multiple = "all"` to silence this
    ##   warning.

``` r
dn_lq_tx
```

    ## # A tibble: 47,400 × 11
    ##    address.x     city.x state zip.x longi…¹ latit…² addre…³ city.y zip.y longi…⁴
    ##    <chr>         <chr>  <chr> <chr>   <dbl>   <dbl> <chr>   <chr>  <chr>   <dbl>
    ##  1 120 East I-20 Abile… TX    79601   -99.6    32.4 3018 C… "\nAb… 79606   -99.8
    ##  2 120 East I-20 Abile… TX    79601   -99.6    32.4 3501 W… "\nAb… 79601   -99.7
    ##  3 120 East I-20 Abile… TX    79601   -99.6    32.4 14925 … "\nAd… 75254   -96.8
    ##  4 120 East I-20 Abile… TX    79601   -99.6    32.4 909 Ea… "\nAl… 78516   -98.1
    ##  5 120 East I-20 Abile… TX    79601   -99.6    32.4 2400 E… "\nAl… 78332   -98.0
    ##  6 120 East I-20 Abile… TX    79601   -99.6    32.4 1220 N… "\nAl… 75013   -96.7
    ##  7 120 East I-20 Abile… TX    79601   -99.6    32.4 1165 H… "\nAl… 76009   -97.2
    ##  8 120 East I-20 Abile… TX    79601   -99.6    32.4 880 So… "\nAl… 77511   -95.2
    ##  9 120 East I-20 Abile… TX    79601   -99.6    32.4 1708 I… "\nAm… 79103  -102. 
    ## 10 120 East I-20 Abile… TX    79601   -99.6    32.4 9305 E… "\nAm… 79118  -102. 
    ## # … with 47,390 more rows, 1 more variable: latitude.y <dbl>, and abbreviated
    ## #   variable names ¹​longitude.x, ²​latitude.x, ³​address.y, ⁴​longitude.y
…
dn_lq_ca <- full_join(dn_ca, lq_ca, by = "state")
```

    ## Warning in full_join(dn_ca, lq_ca, by = "state"): Each row in `x` is expected to match at most 1 row in `y`.
    ## ℹ Row 1 of `x` matches multiple rows.
    ## ℹ If multiple matches are expected, set `multiple = "all"` to silence this
    ##   warning.

``` r
dn_lq_ca
```

    ## # A tibble: 22,568 × 11
    ##    address.x     city.x state zip.x longi…¹ latit…² addre…³ city.y zip.y longi…⁴
    ##    <chr>         <chr>  <chr> <chr>   <dbl>   <dbl> <chr>   <chr>  <chr>   <dbl>
    ##  1 14240 Us Hig… Adela… CA    92301   -117.    34.5 1752 C… "\nAn… 92802   -118.
    ##  2 14240 Us Hig… Adela… CA    92301   -117.    34.5 8858 S… "\nBa… 93308   -119.
    ##  3 14240 Us Hig… Adela… CA    92301   -117.    34.5 3232 R… "\nBa… 93308   -119.
    ##  4 14240 Us Hig… Adela… CA    92301   -117.    34.5 920 Un… "\nBe… 94710   -122.
    ##  5 14240 Us Hig… Adela… CA    92301   -117.    34.5 3 Cent… "\nLa… 90623   -118.
    ##  6 14240 Us Hig… Adela… CA    92301   -117.    34.5 1771 R… "\nDa… 95618   -122.
    ##  7 14240 Us Hig… Adela… CA    92301   -117.    34.5 6275 D… "\nDu… 94568   -122.
    ##  8 14240 Us Hig… Adela… CA    92301   -117.    34.5 316 Pi… "\nFa… 94534   -122.
    ##  9 14240 Us Hig… Adela… CA    92301   -117.    34.5 190 N.… "\nFo… 93625   -120.
    ## 10 14240 Us Hig… Adela… CA    92301   -117.    34.5 46200 … "\nFr… 94538   -122.
    ## # … with 22,558 more rows, 1 more variable: latitude.y <dbl>, and abbreviated
    ## #   variable names ¹​longitude.x, ²​latitude.x, ³​address.y, ⁴​longitude.y
…
